Chapter 4 Конверзија во повторлив код | Препораки за повторливо анализирање на податоци
…
            Препораки за повторливо анализирање на податоци

Chapter 4 Конверзија во повторлив код

4.1 Податоци

За да може да ги видиме следните чекори во акција неопходни ни се податоци. Табелата за трошоци има три колони (варијабли) vraboten, tip_na_trosok и cena. Еве ги првите неколку редови:

trosoci

## # A tibble: 30 x 3
##    vraboten    tip_na_trosok            cena
##    <chr>       <chr>                   <dbl>
##  1 Ана И.      печатење                   75
##  2 Ристе Н.    транспорт                  81
##  3 Ана И.      печатење                   13
##  4 Благоја В.  канцелариски материјали    40
##  5 Антонија А. транспорт                  89
##  6 Љупчо В.    печатење                   48
##  7 Благоја В.  канцелариски материјали    96
##  8 Љупчо В.    канцелариски материјали    23
##  9 Љупчо В.    транспорт                  84
## 10 Ана И.      печатење                   29
## # … with 20 more rows
…
